Homework 4 Site - Combining Excel and Delimited Data
…
Excel file

Import data from project directory

white_wine_tbl <- readxl::read_excel("../white-wine.xlsx", sheet = "white-wine")

white_wine_tbl

# A tibble: 4,898 × 12
   `fixed acidity` `volatile acidity` `citric acid` `residual sugar` chlorides
             <dbl>              <dbl>         <dbl>            <dbl>     <dbl>
 1               7               0.27          0.36             20.7     0.045
 2              63               0.3           0.34              1.6     0.049
 3              81               0.28          0.4               6.9     0.05 
 4              72               0.23          0.32              8.5     0.058
 5              72               0.23          0.32              8.5     0.058
 6              81               0.28          0.4               6.9     0.05 
 7              62               0.32          0.16              7       0.045
 8               7               0.27          0.36             20.7     0.045
 9              63               0.3           0.34              1.6     0.049
10              81               0.22          0.43              1.5     0.044
# ℹ 4,888 more rows
# ℹ 7 more variables: `free sulfur dioxide` <dbl>,
#   `total sulfur dioxide` <dbl>, density <dbl>, pH <dbl>, sulphates <dbl>,
#   alcohol <dbl>, quality <dbl>
…
